%YAML 1.1
%TAG !u! tag:unity3d.com,2011:
--- !u!74 &7400000
AnimationClip:
  m_ObjectHideFlags: 0
  m_CorrespondingSourceObject: {fileID: 0}
  m_PrefabInstance: {fileID: 0}
  m_PrefabAsset: {fileID: 0}
  m_Name: IdleNivel2
  serializedVersion: 6
  m_Legacy: 0
  m_Compressed: 0
  m_UseHighQualityCurve: 1
  m_RotationCurves: []
  m_CompressedRotationCurves: []
  m_EulerCurves: []
  m_PositionCurves: []
  m_ScaleCurves: []
  m_FloatCurves: []
  m_PPtrCurves:
  - curve:
    - time: 0
      value: {fileID: 6316837244481456884, guid: ff78402bdc02c514ea0bad22bfd430b5, type: 3}
    - time: 0.09090909
      value: {fileID: 1532864346551603451, guid: 1281d64b0c591124b9d7593d7015b7fe, type: 3}
    - time: 0.18181819
      value: {fileID: -7499775371117833644, guid: 31ac38405a6fba743bfe64f64ae671ac, type: 3}
    - time: 0.27272728
      value: {fileID: 9208912595044020451, guid: cba0acc3c168cde4aa9e5043387746e4, type: 3}
    - time: 0.36363637
      value: {fileID: -3903405443445963307, guid: 0b5c310e335bd594c8e89d3485963c6d, type: 3}
    - time: 0.45454547
      value: {fileID: 1906816765431640703, guid: 3ad1f6015bd18c243b1fbaf3498a8efc, type: 3}
    attribute: m_Sprite
    path: 
    classID: 212
    script: {fileID: 0}
  m_SampleRate: 11
  m_WrapMode: 0
  m_Bounds:
    m_Center: {x: 0, y: 0, z: 0}
    m_Extent: {x: 0, y: 0, z: 0}
  m_ClipBindingConstant:
    genericBindings:
    - serializedVersion: 2
      path: 0
      attribute: 0
      script: {fileID: 0}
      typeID: 212
      customType: 23
      isPPtrCurve: 1
    pptrCurveMapping:
    - {fileID: 6316837244481456884, guid: ff78402bdc02c514ea0bad22bfd430b5, type: 3}
    - {fileID: 1532864346551603451, guid: 1281d64b0c591124b9d7593d7015b7fe, type: 3}
    - {fileID: -7499775371117833644, guid: 31ac38405a6fba743bfe64f64ae671ac, type: 3}
    - {fileID: 9208912595044020451, guid: cba0acc3c168cde4aa9e5043387746e4, type: 3}
    - {fileID: -3903405443445963307, guid: 0b5c310e335bd594c8e89d3485963c6d, type: 3}
    - {fileID: 1906816765431640703, guid: 3ad1f6015bd18c243b1fbaf3498a8efc, type: 3}
  m_AnimationClipSettings:
    serializedVersion: 2
    m_AdditiveReferencePoseClip: {fileID: 0}
    m_AdditiveReferencePoseTime: 0
    m_StartTime: 0
    m_StopTime: 0.54545456
    m_OrientationOffsetY: 0
    m_Level: 0
    m_CycleOffset: 0
    m_HasAdditiveReferencePose: 0
    m_LoopTime: 1
    m_LoopBlend: 0
    m_LoopBlendOrientation: 0
    m_LoopBlendPositionY: 0
    m_LoopBlendPositionXZ: 0
    m_KeepOriginalOrientation: 0
    m_KeepOriginalPositionY: 1
    m_KeepOriginalPositionXZ: 0
    m_HeightFromFeet: 0
    m_Mirror: 0
  m_EditorCurves: []
  m_EulerEditorCurves: []
  m_HasGenericRootTransform: 0
  m_HasMotionFloatCurves: 0
  m_Events: []
