%YAML 1.1
%TAG !u! tag:unity3d.com,2011:
--- !u!74 &7400000
AnimationClip:
  m_ObjectHideFlags: 0
  m_CorrespondingSourceObject: {fileID: 0}
  m_PrefabInstance: {fileID: 0}
  m_PrefabAsset: {fileID: 0}
  m_Name: RunJadeTele
  serializedVersion: 6
  m_Legacy: 0
  m_Compressed: 0
  m_UseHighQualityCurve: 1
  m_RotationCurves: []
  m_CompressedRotationCurves: []
  m_EulerCurves: []
  m_PositionCurves: []
  m_ScaleCurves: []
  m_FloatCurves: []
  m_PPtrCurves:
  - curve:
    - time: 0
      value: {fileID: -5962248614842954391, guid: f981f6b8c0e5b014e951f8c2651485b8, type: 3}
    - time: 0.083333336
      value: {fileID: -3250351272234339889, guid: e957bce49e750284c948c06c23a74e39, type: 3}
    - time: 0.16666667
      value: {fileID: 4624214427667064817, guid: 277f0a700fe001841a2f1cb53754b9d2, type: 3}
    - time: 0.25
      value: {fileID: -1471461494152717660, guid: a205fb1d725fd1d41b72180b9290e28f, type: 3}
    - time: 0.33333334
      value: {fileID: 7575060925944975922, guid: e0fe9c03ad2ae624f923051798ab9d67, type: 3}
    attribute: m_Sprite
    path: 
    classID: 212
    script: {fileID: 0}
  m_SampleRate: 12
  m_WrapMode: 0
  m_Bounds:
    m_Center: {x: 0, y: 0, z: 0}
    m_Extent: {x: 0, y: 0, z: 0}
  m_ClipBindingConstant:
    genericBindings:
    - serializedVersion: 2
      path: 0
      attribute: 0
      script: {fileID: 0}
      typeID: 212
      customType: 23
      isPPtrCurve: 1
    pptrCurveMapping:
    - {fileID: -5962248614842954391, guid: f981f6b8c0e5b014e951f8c2651485b8, type: 3}
    - {fileID: -3250351272234339889, guid: e957bce49e750284c948c06c23a74e39, type: 3}
    - {fileID: 4624214427667064817, guid: 277f0a700fe001841a2f1cb53754b9d2, type: 3}
    - {fileID: -1471461494152717660, guid: a205fb1d725fd1d41b72180b9290e28f, type: 3}
    - {fileID: 7575060925944975922, guid: e0fe9c03ad2ae624f923051798ab9d67, type: 3}
  m_AnimationClipSettings:
    serializedVersion: 2
    m_AdditiveReferencePoseClip: {fileID: 0}
    m_AdditiveReferencePoseTime: 0
    m_StartTime: 0
    m_StopTime: 0.4166667
    m_OrientationOffsetY: 0
    m_Level: 0
    m_CycleOffset: 0
    m_HasAdditiveReferencePose: 0
    m_LoopTime: 1
    m_LoopBlend: 0
    m_LoopBlendOrientation: 0
    m_LoopBlendPositionY: 0
    m_LoopBlendPositionXZ: 0
    m_KeepOriginalOrientation: 0
    m_KeepOriginalPositionY: 1
    m_KeepOriginalPositionXZ: 0
    m_HeightFromFeet: 0
    m_Mirror: 0
  m_EditorCurves: []
  m_EulerEditorCurves: []
  m_HasGenericRootTransform: 0
  m_HasMotionFloatCurves: 0
  m_Events: []
