%YAML 1.1
%TAG !u! tag:unity3d.com,2011:
--- !u!74 &7400000
AnimationClip:
  m_ObjectHideFlags: 0
  m_CorrespondingSourceObject: {fileID: 0}
  m_PrefabInstance: {fileID: 0}
  m_PrefabAsset: {fileID: 0}
  m_Name: RunTeleAma
  serializedVersion: 6
  m_Legacy: 0
  m_Compressed: 0
  m_UseHighQualityCurve: 1
  m_RotationCurves: []
  m_CompressedRotationCurves: []
  m_EulerCurves: []
  m_PositionCurves: []
  m_ScaleCurves: []
  m_FloatCurves: []
  m_PPtrCurves:
  - curve:
    - time: 0
      value: {fileID: -7622792642950866110, guid: 08f998311e8e85c488b8fce20d1a5e0d, type: 3}
    - time: 0.083333336
      value: {fileID: -6737202787159247699, guid: 50a028b4a08de0e429675be0beb7cd2b, type: 3}
    - time: 0.16666667
      value: {fileID: -3243650955914883982, guid: 68e9be90762c07142a734d6cc3b36daf, type: 3}
    - time: 0.25
      value: {fileID: 5777497064208358121, guid: a8861fb98d20c3941b93e36746eca60a, type: 3}
    - time: 0.33333334
      value: {fileID: 4311702870686059156, guid: 83ee89ff60c2ba54ead8ca571b1ae213, type: 3}
    attribute: m_Sprite
    path: 
    classID: 212
    script: {fileID: 0}
  m_SampleRate: 12
  m_WrapMode: 0
  m_Bounds:
    m_Center: {x: 0, y: 0, z: 0}
    m_Extent: {x: 0, y: 0, z: 0}
  m_ClipBindingConstant:
    genericBindings:
    - serializedVersion: 2
      path: 0
      attribute: 0
      script: {fileID: 0}
      typeID: 212
      customType: 23
      isPPtrCurve: 1
    pptrCurveMapping:
    - {fileID: -7622792642950866110, guid: 08f998311e8e85c488b8fce20d1a5e0d, type: 3}
    - {fileID: -6737202787159247699, guid: 50a028b4a08de0e429675be0beb7cd2b, type: 3}
    - {fileID: -3243650955914883982, guid: 68e9be90762c07142a734d6cc3b36daf, type: 3}
    - {fileID: 5777497064208358121, guid: a8861fb98d20c3941b93e36746eca60a, type: 3}
    - {fileID: 4311702870686059156, guid: 83ee89ff60c2ba54ead8ca571b1ae213, type: 3}
  m_AnimationClipSettings:
    serializedVersion: 2
    m_AdditiveReferencePoseClip: {fileID: 0}
    m_AdditiveReferencePoseTime: 0
    m_StartTime: 0
    m_StopTime: 0.4166667
    m_OrientationOffsetY: 0
    m_Level: 0
    m_CycleOffset: 0
    m_HasAdditiveReferencePose: 0
    m_LoopTime: 1
    m_LoopBlend: 0
    m_LoopBlendOrientation: 0
    m_LoopBlendPositionY: 0
    m_LoopBlendPositionXZ: 0
    m_KeepOriginalOrientation: 0
    m_KeepOriginalPositionY: 1
    m_KeepOriginalPositionXZ: 0
    m_HeightFromFeet: 0
    m_Mirror: 0
  m_EditorCurves: []
  m_EulerEditorCurves: []
  m_HasGenericRootTransform: 0
  m_HasMotionFloatCurves: 0
  m_Events: []
