%YAML 1.1
%TAG !u! tag:unity3d.com,2011:
--- !u!114 &11400000
MonoBehaviour:
  m_ObjectHideFlags: 0
  m_CorrespondingSourceObject: {fileID: 0}
  m_PrefabInstance: {fileID: 0}
  m_PrefabAsset: {fileID: 0}
  m_GameObject: {fileID: 0}
  m_Enabled: 1
  m_EditorHideFlags: 0
  m_Script: {fileID: 11500000, guid: f639757b39bc4c14997cf4a14003cc1c, type: 3}
  m_Name: Item-3
  m_EditorClassIdentifier: 
  itemName: Carbon
  itemQuantity: 1
  itemCost: 5
  itemSprite: {fileID: -1544609211985047881, guid: 2d56c8f15baf4d74092ad974a1e80ee5, type: 3}
  action: 
  canCombine: 1
