%YAML 1.1
%TAG !u! tag:unity3d.com,2011:
--- !u!114 &11400000
MonoBehaviour:
  m_ObjectHideFlags: 0
  m_CorrespondingSourceObject: {fileID: 0}
  m_PrefabInstance: {fileID: 0}
  m_PrefabAsset: {fileID: 0}
  m_GameObject: {fileID: 0}
  m_Enabled: 1
  m_EditorHideFlags: 0
  m_Script: {fileID: 11500000, guid: f639757b39bc4c14997cf4a14003cc1c, type: 3}
  m_Name: Jade
  m_EditorClassIdentifier: 
  itemName: Jade
  itemQuantity: 1
  itemCost: 0
  itemSprite: {fileID: -7178236443460284778, guid: 57e1143596a7922428e476e5fadb3e54, type: 3}
  action: 
  canCombine: 0
