%YAML 1.1
%TAG !u! tag:unity3d.com,2011:
--- !u!1045 &1
EditorBuildSettings:
  m_ObjectHideFlags: 0
  serializedVersion: 2
  m_Scenes:
  - enabled: 0
    path: Assets/00_Scenes/Combat.unity
    guid: be3b9c30a7f600545831cfafacc64913
  - enabled: 1
    path: Assets/00_Scenes/Menu.unity
    guid: e1e06e4aa0924554da20f982177e256d
  - enabled: 1
    path: Assets/00_Scenes/Level-1.unity
    guid: 5b7dd3fbd63f97c4484ea0f8ee0429e3
  - enabled: 1
    path: Assets/00_Scenes/Level-2Zafiro.unity
    guid: ef11c8bd4981dd0428a370bf4dcd9323
  - enabled: 1
    path: Assets/00_Scenes/Level-3CuevaMagma.unity
    guid: 62ce183285d539d438595111cd7db2cd
  - enabled: 0
    path: Assets/00_Scenes/Nivel-1.unity
    guid: 2cda990e2423bbf4892e6590ba056729
  - enabled: 0
    path: Assets/00_Scenes/Nivel-2.unity
    guid: 6b39d64060812e34b8ec8e9d2c37600d
  - enabled: 0
    path: Assets/00_Scenes/Nivel-3.unity
    guid: 4c498b0e19bba1f499a6e0b416a24355
  - enabled: 0
    path: Assets/00_Scenes/Nivel-4.unity
    guid: 1836e8e0e4a02de4685dbce859353446
  - enabled: 1
    path: Assets/00_Scenes/Nivel-5.unity
    guid: c043bf729c2e04d459e1b2a3b2bfe6a8
  - enabled: 0
    path: Assets/00_Scenes/Nivel-6.unity
    guid: d017e9fd116325346820ad0c91dd01d9
  m_configObjects: {}
